semana31 – La Datafora
…
Empezando con DPLYR

filter() select() mutate() arrage() summarise() | reframe() gruop_by()

Filter()

gapminder %>%
  filter(year == 2007)

# A tibble: 142 × 6
   country     continent  year lifeExp       pop gdpPercap
   <fct>       <fct>     <int>   <dbl>     <int>     <dbl>
 1 Afghanistan Asia       2007    43.8  31889923      975.
 2 Albania     Europe     2007    76.4   3600523     5937.
 3 Algeria     Africa     2007    72.3  33333216     6223.
 4 Angola      Africa     2007    42.7  12420476     4797.
 5 Argentina   Americas   2007    75.3  40301927    12779.
 6 Australia   Oceania    2007    81.2  20434176    34435.
 7 Austria     Europe     2007    79.8   8199783    36126.
 8 Bahrain     Asia       2007    75.6    708573    29796.
 9 Bangladesh  Asia       2007    64.1 150448339     1391.
10 Belgium     Europe     2007    79.4  10392226    33693.
# ℹ 132 more rows

gp_america_2007 = gapminder %>%
  filter(year == 2007,
         continent == 'Americas')

gp_america_2007

# A tibble: 25 × 6
   country            continent  year lifeExp       pop gdpPercap
   <fct>              <fct>     <int>   <dbl>     <int>     <dbl>
 1 Argentina          Americas   2007    75.3  40301927    12779.
 2 Bolivia            Americas   2007    65.6   9119152     3822.
 3 Brazil             Americas   2007    72.4 190010647     9066.
 4 Canada             Americas   2007    80.7  33390141    36319.
 5 Chile              Americas   2007    78.6  16284741    13172.
 6 Colombia           Americas   2007    72.9  44227550     7007.
 7 Costa Rica         Americas   2007    78.8   4133884     9645.
 8 Cuba               Americas   2007    78.3  11416987     8948.
 9 Dominican Republic Americas   2007    72.2   9319622     6025.
10 Ecuador            Americas   2007    75.0  13755680     6873.
# ℹ 15 more rows
…
Arrange()

gapminder %>% 
  filter(year == 2007) %>% 
  arrange(lifeExp)

# A tibble: 142 × 6
   country                  continent  year lifeExp      pop gdpPercap
   <fct>                    <fct>     <int>   <dbl>    <int>     <dbl>
 1 Swaziland                Africa     2007    39.6  1133066     4513.
 2 Mozambique               Africa     2007    42.1 19951656      824.
 3 Zambia                   Africa     2007    42.4 11746035     1271.
 4 Sierra Leone             Africa     2007    42.6  6144562      863.
 5 Lesotho                  Africa     2007    42.6  2012649     1569.
 6 Angola                   Africa     2007    42.7 12420476     4797.
 7 Zimbabwe                 Africa     2007    43.5 12311143      470.
 8 Afghanistan              Asia       2007    43.8 31889923      975.
 9 Central African Republic Africa     2007    44.7  4369038      706.
10 Liberia                  Africa     2007    45.7  3193942      415.
# ℹ 132 more rows

gapminder %>% 
  filter(year == 2007) %>% 
  arrange(desc(lifeExp))

# A tibble: 142 × 6
   country          continent  year lifeExp       pop gdpPercap
   <fct>            <fct>     <int>   <dbl>     <int>     <dbl>
 1 Japan            Asia       2007    82.6 127467972    31656.
 2 Hong Kong, China Asia       2007    82.2   6980412    39725.
 3 Iceland          Europe     2007    81.8    301931    36181.
 4 Switzerland      Europe     2007    81.7   7554661    37506.
 5 Australia        Oceania    2007    81.2  20434176    34435.
 6 Spain            Europe     2007    80.9  40448191    28821.
 7 Sweden           Europe     2007    80.9   9031088    33860.
 8 Israel           Asia       2007    80.7   6426679    25523.
 9 France           Europe     2007    80.7  61083916    30470.
10 Canada           Americas   2007    80.7  33390141    36319.
# ℹ 132 more rows

Mutate()

gapminder_2007 = gapminder %>% 
  filter(year == 2007)

gapminder_2007

# A tibble: 142 × 6
   country     continent  year lifeExp       pop gdpPercap
   <fct>       <fct>     <int>   <dbl>     <int>     <dbl>
 1 Afghanistan Asia       2007    43.8  31889923      975.
 2 Albania     Europe     2007    76.4   3600523     5937.
 3 Algeria     Africa     2007    72.3  33333216     6223.
 4 Angola      Africa     2007    42.7  12420476     4797.
 5 Argentina   Americas   2007    75.3  40301927    12779.
 6 Australia   Oceania    2007    81.2  20434176    34435.
 7 Austria     Europe     2007    79.8   8199783    36126.
 8 Bahrain     Asia       2007    75.6    708573    29796.
 9 Bangladesh  Asia       2007    64.1 150448339     1391.
10 Belgium     Europe     2007    79.4  10392226    33693.
# ℹ 132 more rows

gapminder_2007 = gapminder_2007 %>% 
  mutate(pbi_total = pop * gdpPercap)

gapminder_2007 %>% 
  mutate(pbi_total = round((pop * gdpPercap)/ 10000000000))

# A tibble: 142 × 7
   country     continent  year lifeExp       pop gdpPercap pbi_total
   <fct>       <fct>     <int>   <dbl>     <int>     <dbl>     <dbl>
 1 Afghanistan Asia       2007    43.8  31889923      975.         3
 2 Albania     Europe     2007    76.4   3600523     5937.         2
 3 Algeria     Africa     2007    72.3  33333216     6223.        21
 4 Angola      Africa     2007    42.7  12420476     4797.         6
 5 Argentina   Americas   2007    75.3  40301927    12779.        52
 6 Australia   Oceania    2007    81.2  20434176    34435.        70
 7 Austria     Europe     2007    79.8   8199783    36126.        30
 8 Bahrain     Asia       2007    75.6    708573    29796.         2
 9 Bangladesh  Asia       2007    64.1 150448339     1391.        21
10 Belgium     Europe     2007    79.4  10392226    33693.        35
# ℹ 132 more rows

gapminder_2007 %>% 
  mutate(pbi_total = pop * gdpPercap) %>% 
  arrange(desc(pbi_total))

# A tibble: 142 × 7
   country        continent  year lifeExp        pop gdpPercap pbi_total
   <fct>          <fct>     <int>   <dbl>      <int>     <dbl>     <dbl>
 1 United States  Americas   2007    78.2  301139947    42952.   1.29e13
 2 China          Asia       2007    73.0 1318683096     4959.   6.54e12
 3 Japan          Asia       2007    82.6  127467972    31656.   4.04e12
 4 India          Asia       2007    64.7 1110396331     2452.   2.72e12
 5 Germany        Europe     2007    79.4   82400996    32170.   2.65e12
 6 United Kingdom Europe     2007    79.4   60776238    33203.   2.02e12
 7 France         Europe     2007    80.7   61083916    30470.   1.86e12
 8 Brazil         Americas   2007    72.4  190010647     9066.   1.72e12
 9 Italy          Europe     2007    80.5   58147733    28570.   1.66e12
10 Mexico         Americas   2007    76.2  108700891    11978.   1.30e12
# ℹ 132 more rows
…
