R para el análisis de datos en Ciencias Sociales
…
library(dlookr)

gss_14 %>% 
  diagnose_numeric()

# A tibble: 2 × 10
  variables   min    Q1  mean median    Q3   max  zero minus outlier
  <chr>     <int> <dbl> <dbl>  <int> <dbl> <int> <int> <int>   <int>
1 age          18    34 49.0      49    62    89     0     0       0
2 tvhours       0     1  2.98      2     4    24   120     0      46

gss_14 %>% 
  diagnose_category()

# A tibble: 49 × 6
   variables levels             N  freq  ratio  rank
   <chr>     <chr>          <int> <int>  <dbl> <int>
 1 marital   Married         2538  1158 45.6       1
 2 marital   Never married   2538   675 26.6       2
 3 marital   Divorced        2538   411 16.2       3
 4 marital   Widowed         2538   209  8.23      4
 5 marital   Separated       2538    81  3.19      5
 6 marital   No answer       2538     4  0.158     6
 7 race      White           2538  1890 74.5       1
 8 race      Black           2538   386 15.2       2
 9 race      Other           2538   262 10.3       3
10 rincome   $25000 or more  2538   951 37.5       1
# ℹ 39 more rows
…
