Sesión 2: Manipulación de datos, transformación de variables y resúmenes estadísticos – La Datafora
…
Esto no hace nada visible aún, pero le indica a R que toda operación posterior se aplique por separado a cada región.

Podemos aplicar reframe() junto con group_by para obtener el promedio por cada región:

df %>%
  group_by(region) %>%
  reframe(media_pib = mean(pib_capita, na.rm = TRUE))

# A tibble: 7 × 2
  region                     media_pib
  <chr>                          <dbl>
1 East Asia & Pacific           17334.
2 Europe & Central Asia         36010.
3 Latin America & Caribbean     14812.
4 Middle East & North Africa    17081.
5 North America                 77112.
6 South Asia                     3182.
# ℹ 1 more row
…
¿Cuál es el país más poblado de cada región?

Ahora agrupamos por región, ordenamos dentro de cada grupo y usamos slice_head() para quedarnos con el primer país de cada región (el más poblado):

df_22 %>%
  group_by(region) %>%
  arrange(desc(poblacion), .by_group = TRUE) %>%
  slice_head(n = 1) %>%
  select(region, country, poblacion) %>% 
  arrange(desc(poblacion))

# A tibble: 7 × 3
# Groups:   region [7]
  region                    country             poblacion
  <chr>                     <chr>                   <dbl>
1 South Asia                India              1425423212
2 East Asia & Pacific       China              1412175000
3 North America             United States       334017321
4 Sub-Saharan Africa        Nigeria             223150896
5 Latin America & Caribbean Brazil              210306415
6 Europe & Central Asia     Russian Federation  144236933
# ℹ 1 more row
…
A veces tenemos tantas columnas, tantos países, tantos años, que lo primero que necesitamos hacer es explorar, entender. Para eso nos sirve tener una fotografía inicial de los datos.

Dato

R es, en esencia, una herramienta estadística. Y como tal, una de sus fortalezas más importantes está en poder describir datos de manera rápida, flexible y clara.

El paquete dlookr nos da un resumen muy completo de nuestras variables, incluyendo cantidad de valores perdidos, medias, desviaciones estándar, percentiles y más.

library(dlookr)

La función diagnose() nos devuelve una tabla muy completa con cada variable. Muy útil para detectar cosas como: Variables con muchos NAs y número de categorías

diagnose(df_22)

# A tibble: 7 × 6
  variables  types     missing_count missing_percent unique_count unique_rate
  <chr>      <chr>             <int>           <dbl>        <int>       <dbl>
1 country    character             0            0             216      1     
2 pib_capita numeric               8            3.70          209      0.968 
3 esp_vida   numeric               0            0             214      0.991 
4 poblacion  numeric               0            0             216      1     
5 region     character             0            0               7      0.0324
6 income     character             0            0               5      0.0231
# ℹ 1 more row
…
