Sesión 1: Introducción – La Datafora
…
El paquete readr es parte del tidyverse y está diseñado para leer archivos CSV.

# Cargamos el paquete readr
library(readr)

Al importar un conjunto de datos debemos nombrarlo.

# Importamos el archivo CSV y lo asignamos a un objeto
encuesta_csv = read_csv("encuesta.csv")
encuesta_csv

# A tibble: 8 × 3
  genero    medio_comunicación  edad
  <chr>     <chr>              <dbl>
1 Masculino Televisión            34
2 Femenino  Redes sociales        25
3 Femenino  Redes sociales        55
4 Otro      Radio                 63
5 Femenino  Televisión            47
6 Masculino Redes sociales        19
# ℹ 2 more rows

Los archivos de Excel son comunes en las ciencias sociales debido a su facilidad de uso y capacidad para almacenar datos tabulares en varias hojas. El paquete readxl permite importar estos archivos, ya sea en formato .xls o .xlsx, sin necesidad de tener Excel instalado.

# Cargamos el paquete readxl
library(readxl)

# Importamos los datos desde un archivo Excel
encuesta_excel = read_excel("encuesta.xlsx")
encuesta_excel

# A tibble: 10 × 3
  genero    medio_comunicación  edad
  <chr>     <chr>              <dbl>
1 Masculino Televisión            34
2 Femenino  Redes sociales        NA
3 Femenino  Redes sociales        55
4 Otro      Radio                 63
5 Femenino  Televisión            NA
6 Masculino Redes sociales        19
# ℹ 4 more rows
…
Limpieza

Una vez que hemos importado los datos, el siguiente paso es limpiarlos. Este proceso consiste en identificar y corregir problemas comunes como valores faltantes, nombres de columnas inconsistentes, duplicados y tipos de datos incorrectos. La limpieza asegura que los datos estén en un estado coherente y listo para ser transformado o analizado.

Manejo de valores faltantes

El manejo de valores faltantes es uno de los aspectos más complejos en la limpieza de datos, y un tema importante a considerar al trabajar con conjuntos de datos. Un valor perdido o NA en R no es lo mismo que un 0 o un espacio vacío. Un valor perdido (o NA, que significa “Not Available”) es una celda que no contiene información en absoluto, lo que puede ocurrir por diversas razones, como un error en la recolección de los datos, una respuesta no proporcionada en una encuesta o una omisión involuntaria al momento de ingresar los datos.

Por ejemplo:

encuesta_excel

# A tibble: 10 × 3
  genero    medio_comunicación  edad
  <chr>     <chr>              <dbl>
1 Masculino Televisión            34
2 Femenino  Redes sociales        NA
3 Femenino  Redes sociales        55
4 Otro      Radio                 63
5 Femenino  Televisión            NA
6 Masculino Redes sociales        19
# ℹ 4 more rows
…
# Cantidad de valores perdidos 
sum(is.na(encuesta_excel$edad)) 

[1] 2

Una de las formas más simples de manejar valores faltantes es eliminarlos por completo. Esto puede hacerse utilizando la función drop_na() del paquete tidyr, que elimina las filas que contienen al menos un valor NA en cualquier columna. Esta es una solución rápida, pero es importante ser cauteloso, ya que puede resultar en la pérdida de información valiosa si hay muchos datos faltantes.

# Cargamos tidyr
library(tidyr)

# Eliminamos filas con valores faltantes
drop_na(encuesta_excel)

# A tibble: 7 × 3
  genero    medio_comunicación  edad
  <chr>     <chr>              <dbl>
1 Masculino Televisión            34
2 Femenino  Redes sociales        55
3 Otro      Radio                 63
4 Masculino Redes sociales        19
5 Masculino Periódico             75
6 Femenino  Redes sociales        55
# ℹ 1 more row
…
[1] 10  3

dim(encuesta_sin_na)

[1] 7 3

Si queremos ser más específicos y eliminar valores faltantes solo en una columna particular, podemos usar:

# Eliminamos filas donde la columna 'edad' tiene NA
encuesta_sin_na = drop_na(encuesta_excel, edad)

encuesta_sin_na

# A tibble: 8 × 3
  genero    medio_comunicación  edad
  <chr>     <chr>              <dbl>
1 Masculino Televisión            34
2 Femenino  Redes sociales        55
3 Otro      Radio                 63
4 Masculino Redes sociales        19
5 Masculino <NA>                  29
6 Masculino Periódico             75
# ℹ 2 more rows
…
